…
scale_colour_discrete = scale_colour_viridis_d
scale_fill_discrete = scale_fill_viridis_d

data("instacart")

instacart = janitor::clean_names(instacart)

instacart |> 
  count(department, name = "number") |>  # not gonna show results here for aes
  mutate(max_department = department[which.max(number)], min_department = department[which.min(number)])
```

    ## # A tibble: 21 × 4
    ##    department      number max_department min_department
    ##    <chr>            <int> <chr>          <chr>         
    ##  1 alcohol           5598 produce        bulk          
    ##  2 babies           14941 produce        bulk          
    ##  3 bakery           48394 produce        bulk          
    ##  4 beverages       114046 produce        bulk          
    ##  5 breakfast        29500 produce        bulk          
    ##  6 bulk              1359 produce        bulk          
    ##  7 canned goods     46799 produce        bulk          
    ##  8 dairy eggs      217051 produce        bulk          
    ##  9 deli             44291 produce        bulk          
    ## 10 dry goods pasta  38713 produce        bulk          
    ## # ℹ 11 more rows
…
